<?xml version="1.0" standalone="no"?>
<!DOCTYPE svg PUBLIC "-//W3C//DTD SVG 1.1//EN" "http://www.w3.org/Graphics/SVG/1.1/DTD/svg11.dtd" >
<svg xmlns="http://www.w3.org/2000/svg">
<metadata>Generated by IcoMoon</metadata>
<defs>
<font id="icomoon" horiz-adv-x="1024">
<font-face units-per-em="1024" ascent="960" descent="-64" />
<missing-glyph horiz-adv-x="1024" />
<glyph unicode="&#x20;" horiz-adv-x="512" d="" />
<glyph unicode="&#xe000;" glyph-name="error" d="M554 384.667v256h-84v-256h84zM554 212.667v86h-84v-86h84zM512 852.667c236 0 426-190 426-426s-190-426-426-426-426 190-426 426 190 426 426 426z" />
<glyph unicode="&#xe001;" glyph-name="error_outline" d="M512 84.667c188 0 342 154 342 342s-154 342-342 342-342-154-342-342 154-342 342-342zM512 852.667c236 0 426-190 426-426s-190-426-426-426-426 190-426 426 190 426 426 426zM470 640.667h84v-256h-84v256zM470 298.667h84v-86h-84v86z" />
<glyph unicode="&#xe002;" glyph-name="warning" d="M554 340.667v172h-84v-172h84zM554 170.667v86h-84v-86h84zM42 42.667l470 810 470-810h-940z" />
<glyph unicode="&#xe01b;" glyph-name="av_timer" d="M256 426.667c0 24 18 42 42 42s44-18 44-42-20-42-44-42-42 18-42 42zM768 426.667c0-24-18-42-42-42s-44 18-44 42 20 42 44 42 42-18 42-42zM470 810.667h42c212 0 384-172 384-384s-172-384-384-384-384 172-384 384c0 126 60 236 154 306v2l290-290-60-60-232 230c-42-52-66-116-66-188 0-166 132-298 298-298s298 132 298 298c0 150-112 276-256 296v-82h-84v170zM470 212.667c0 24 18 44 42 44s42-20 42-44-18-42-42-42-42 18-42 42z" />
<glyph unicode="&#xe02f;" glyph-name="library_books" d="M810 640.667v84h-426v-84h426zM640 298.667v86h-256v-86h256zM810 468.667v86h-426v-86h426zM854 852.667c46 0 84-38 84-84v-512c0-46-38-86-84-86h-512c-46 0-86 40-86 86v512c0 46 40 84 86 84h512zM170 682.667v-598h598v-84h-598c-46 0-84 38-84 84v598h84z" />
<glyph unicode="&#xe033;" glyph-name="not_interested" d="M782 216.667c46 58 72 132 72 210 0 188-154 342-342 342-78 0-152-26-210-72zM512 84.667c78 0 152 26 210 72l-480 480c-46-58-72-132-72-210 0-188 154-342 342-342zM512 852.667c236 0 426-190 426-426s-190-426-426-426-426 190-426 426 190 426 426 426z" />
<glyph unicode="&#xe034;" glyph-name="pause" d="M598 724.667h170v-596h-170v596zM256 128.667v596h170v-596h-170z" />
<glyph unicode="&#xe037;" glyph-name="play_arrow" d="M342 724.667l468-298-468-298v596z" />
<glyph unicode="&#xe038;" glyph-name="play_circle_filled" d="M426 234.667l256 192-256 192v-384zM512 852.667c236 0 426-190 426-426s-190-426-426-426-426 190-426 426 190 426 426 426z" />
<glyph unicode="&#xe039;" glyph-name="play_circle_outline" d="M512 84.667c188 0 342 154 342 342s-154 342-342 342-342-154-342-342 154-342 342-342zM512 852.667c236 0 426-190 426-426s-190-426-426-426-426 190-426 426 190 426 426 426zM426 234.667v384l256-192z" />
<glyph unicode="&#xe03b;" glyph-name="playlist_add" d="M86 256.667v84h340v-84h-340zM768 340.667h170v-84h-170v-172h-86v172h-170v84h170v172h86v-172zM598 682.667v-86h-512v86h512zM598 512.667v-86h-512v86h512z" />
<glyph unicode="&#xe03d;" glyph-name="queue_music" d="M726 682.667h212v-86h-128v-384c0-70-58-128-128-128s-128 58-128 128 58 128 128 128c14 0 30-4 44-8v350zM128 256.667v84h342v-84h-342zM640 512.667v-86h-512v86h512zM640 682.667v-86h-512v86h512z" />
<glyph unicode="&#xe040;" glyph-name="repeat" d="M726 212.667v172h84v-256h-512v-128l-170 170 170 170v-128h428zM298 640.667v-172h-84v256h512v128l170-170-170-170v128h-428z" />
<glyph unicode="&#xe043;" glyph-name="shuffle" d="M632 366.667l134-134 88 88v-236h-236l88 88-134 134zM618 768.667h236v-236l-88 88-536-536-60 60 536 536zM452 546.667l-60-60-222 222 60 60z" />
<glyph unicode="&#xe044;" glyph-name="skip_next" d="M682 682.667h86v-512h-86v512zM256 170.667v512l362-256z" />
<glyph unicode="&#xe045;" glyph-name="skip_previous" d="M406 426.667l362 256v-512zM256 682.667h86v-512h-86v512z" />
<glyph unicode="&#xe047;" glyph-name="stop" d="M256 682.667h512v-512h-512v512z" />
<glyph unicode="&#xe04d;" glyph-name="volume_down" d="M214 554.667h170l214 214v-684l-214 214h-170v256zM790 426.667c0-76-44-140-108-172v344c64-32 108-96 108-172z" />
<glyph unicode="&#xe050;" glyph-name="volume_up" d="M598 800.667c172-38 298-192 298-374s-126-336-298-374v88c124 36 212 150 212 286s-88 250-212 286v88zM704 426.667c0-76-42-140-106-172v344c64-32 106-96 106-172zM128 554.667h170l214 214v-684l-214 214h-170v256z" />
<glyph unicode="&#xe051;" glyph-name="web" d="M854 170.667v384h-172v-384h172zM640 384.667v170h-470v-170h470zM640 170.667v170h-470v-170h470zM854 768.667c46 0 84-40 84-86v-512c0-46-38-86-84-86h-684c-46 0-84 40-84 86v512c0 46 38 86 84 86h684z" />
<glyph unicode="&#xe053;" glyph-name="sort_by_alpha" d="M672 250.667h260v-68h-364v54l252 366h-250v68h354v-54zM212 356.667h166l-84 222zM260 670.667h70l192-488h-78l-40 104h-218l-40-104h-78zM438 112.667h198l-100-100zM638 740.667h-202l100 100z" />
<glyph unicode="&#xe05f;" glyph-name="playlist_play" d="M726 384.667l212-128-212-128v256zM86 298.667v86h554v-86h-554zM810 724.667v-84h-724v84h724zM810 554.667v-86h-724v86h724z" />
<glyph unicode="&#xe0b7;" glyph-name="chat" d="M768 596.667v86h-512v-86h512zM598 340.667v86h-342v-86h342zM256 554.667v-86h512v86h-512zM854 852.667c46 0 84-38 84-84v-512c0-46-38-86-84-86h-598l-170-170v768c0 46 38 84 84 84h684z" />
<glyph unicode="&#xe0c3;" glyph-name="import_export" d="M682 212.667h128l-170-170-170 170h128v300h84v-300zM384 810.667l170-170h-128v-300h-84v300h-128z" />
<glyph unicode="&#xe145;" glyph-name="add" d="M810 384.667h-256v-256h-84v256h-256v84h256v256h84v-256h256v-84z" />
<glyph unicode="&#xe146;" glyph-name="add_box" d="M726 384.667v84h-172v172h-84v-172h-172v-84h172v-172h84v172h172zM810 810.667c46 0 86-40 86-86v-596c0-46-40-86-86-86h-596c-48 0-86 40-86 86v596c0 46 38 86 86 86h596z" />
<glyph unicode="&#xe14b;" glyph-name="block" d="M512 84.667c188 0 342 154 342 342 0 78-26 152-72 210l-480-480c58-46 132-72 210-72zM170 426.667c0-78 26-152 72-210l480 480c-58 46-132 72-210 72-188 0-342-154-342-342zM512 852.667c236 0 426-190 426-426s-190-426-426-426-426 190-426 426 190 426 426 426z" />
<glyph unicode="&#xe152;" glyph-name="filter_list" d="M256 384.667v84h512v-84h-512zM128 682.667h768v-86h-768v86zM426 170.667v86h172v-86h-172z" />
<glyph unicode="&#xe157;" glyph-name="link" d="M726 640.667c118 0 212-96 212-214s-94-214-212-214h-172v82h172c72 0 132 60 132 132s-60 132-132 132h-172v82h172zM342 384.667v84h340v-84h-340zM166 426.667c0-72 60-132 132-132h172v-82h-172c-118 0-212 96-212 214s94 214 212 214h172v-82h-172c-72 0-132-60-132-132z" />
<glyph unicode="&#xe15b;" glyph-name="remove" d="M810 384.667h-596v84h596v-84z" />
<glyph unicode="&#xe15c;" glyph-name="remove_circle" d="M726 384.667v84h-428v-84h428zM512 852.667c236 0 426-190 426-426s-190-426-426-426-426 190-426 426 190 426 426 426z" />
<glyph unicode="&#xe15d;" glyph-name="remove_circle_outline" d="M512 84.667c188 0 342 154 342 342s-154 342-342 342-342-154-342-342 154-342 342-342zM512 852.667c236 0 426-190 426-426s-190-426-426-426-426 190-426 426 190 426 426 426zM298 468.667h428v-84h-428v84z" />
<glyph unicode="&#xe161;" glyph-name="save" d="M640 554.667v170h-426v-170h426zM512 128.667c70 0 128 58 128 128s-58 128-128 128-128-58-128-128 58-128 128-128zM726 810.667l170-170v-512c0-46-40-86-86-86h-596c-48 0-86 40-86 86v596c0 46 38 86 86 86h512z" />
<glyph unicode="&#xe164;" glyph-name="sort" d="M128 384.667v84h512v-84h-512zM128 682.667h768v-86h-768v86zM128 170.667v86h256v-86h-256z" />
<glyph unicode="&#xe167;" glyph-name="font_download" d="M680 148.667h90l-218 556h-80l-218-556h90l48 128h240zM854 852.667c46 0 84-38 84-84v-684c0-46-38-84-84-84h-684c-46 0-84 38-84 84v684c0 46 38 84 84 84h684zM424 362.667l88 236 88-236h-176z" />
<glyph unicode="&#xe1e2;" glyph-name="wifi_tethering" d="M512 810.667c236 0 426-190 426-426 0-158-84-296-212-370l-44 74c102 60 172 170 172 296 0 188-154 340-342 340s-342-152-342-340c0-126 68-236 170-296l-42-74c-128 74-212 212-212 370 0 236 190 426 426 426zM768 384.667c0-94-52-178-128-222l-42 74c50 30 84 84 84 148 0 94-76 170-170 170s-170-76-170-170c0-64 34-118 84-148l-42-74c-76 44-128 128-128 222 0 142 114 256 256 256s256-114 256-256zM512 468.667c46 0 86-38 86-84s-40-86-86-86-86 40-86 86 40 84 86 84z" />
<glyph unicode="&#xe226;" glyph-name="attach_file" d="M704 682.667h64v-490c0-130-104-236-234-236s-236 106-236 236v532c0 94 78 172 172 172s170-78 170-172v-448c0-58-48-106-106-106s-108 48-108 106v406h64v-406c0-24 20-42 44-42s42 18 42 42v448c0 58-48 108-106 108s-108-50-108-108v-532c0-94 78-172 172-172s170 78 170 172v490z" />
<glyph unicode="&#xe240;" glyph-name="format_line_spacing" d="M426 384.667v84h512v-84h-512zM426 128.667v84h512v-84h-512zM426 724.667h512v-84h-512v84zM256 640.667v-428h106l-148-148-150 148h106v428h-106l150 148 148-148h-106z" />
<glyph unicode="&#xe241;" glyph-name="format_list_bulleted" d="M298 724.667h598v-84h-598v84zM298 384.667v84h598v-84h-598zM298 128.667v84h598v-84h-598zM170 234.667c36 0 64-30 64-64s-30-64-64-64-64 30-64 64 28 64 64 64zM170 746.667c36 0 64-28 64-64s-28-64-64-64-64 28-64 64 28 64 64 64zM170 490.667c36 0 64-28 64-64s-28-64-64-64-64 28-64 64 28 64 64 64z" />
<glyph unicode="&#xe254;" glyph-name="mode_edit" d="M884 638.667l-78-78-160 160 78 78c16 16 44 16 60 0l100-100c16-16 16-44 0-60zM128 202.667l472 472 160-160-472-472h-160v160z" />
<glyph unicode="&#xe25d;" glyph-name="drag_handle" d="M170 298.667v86h684v-86h-684zM854 554.667v-86h-684v86h684z" />
<glyph unicode="&#xe2c6;" glyph-name="file_upload" d="M214 170.667h596v-86h-596v86zM384 256.667v256h-170l298 298 298-298h-170v-256h-256z" />
<glyph unicode="&#xe2c7;" glyph-name="folder" d="M426 768.667l86-86h342c46 0 84-40 84-86v-426c0-46-38-86-84-86h-684c-46 0-84 40-84 86v512c0 46 38 86 84 86h256z" />
<glyph unicode="&#xe313;" glyph-name="keyboard_arrow_down" d="M316 604.667l196-196 196 196 60-60-256-256-256 256z" />
<glyph unicode="&#xe314;" glyph-name="keyboard_arrow_left" d="M658 252.667l-60-60-256 256 256 256 60-60-196-196z" />
<glyph unicode="&#xe315;" glyph-name="keyboard_arrow_right" d="M366 240.667l196 196-196 196 60 60 256-256-256-256z" />
<glyph unicode="&#xe316;" glyph-name="keyboard_arrow_up" d="M316 280.667l-60 60 256 256 256-256-60-60-196 196z" />
<glyph unicode="&#xe3c7;" glyph-name="dehaze" d="M86 704.667h852v-86h-852v86zM86 490.667h852v-86h-852v86zM86 276.667h852v-84h-852v84z" />
<glyph unicode="&#xe408;" glyph-name="navigate_before" d="M658 622.667l-196-196 196-196-60-60-256 256 256 256z" />
<glyph unicode="&#xe409;" glyph-name="navigate_next" d="M426 682.667l256-256-256-256-60 60 196 196-196 196z" />
<glyph unicode="&#xe41b;" glyph-name="slideshow" d="M810 128.667v596h-596v-596h596zM810 810.667c46 0 86-40 86-86v-596c0-46-40-86-86-86h-596c-46 0-86 40-86 86v596c0 46 40 86 86 86h596zM426 596.667l214-170-214-170v340z" />
<glyph unicode="&#xe56b;" glyph-name="zoom_out_map" d="M896 298.667v-256h-256l98 98-124 122 62 62 122-124zM384 42.667h-256v256l98-98 122 124 62-62-124-122zM128 554.667v256h256l-98-98 124-122-62-62-122 124zM640 810.667h256v-256l-98 98-122-124-62 62 124 122z" />
<glyph unicode="&#xe5c9;" glyph-name="cancel" d="M726 272.667l-154 154 154 154-60 60-154-154-154 154-60-60 154-154-154-154 60-60 154 154 154-154zM512 852.667c236 0 426-190 426-426s-190-426-426-426-426 190-426 426 190 426 426 426z" />
<glyph unicode="&#xe5ca;" glyph-name="check" d="M384 248.667l452 452 60-60-512-512-238 238 60 60z" />
<glyph unicode="&#xe5cd;" glyph-name="close" d="M810 664.667l-238-238 238-238-60-60-238 238-238-238-60 60 238 238-238 238 60 60 238-238 238 238z" />
<glyph unicode="&#xe5ce;" glyph-name="expand_less" d="M512 596.667l256-256-60-60-196 196-196-196-60 60z" />
<glyph unicode="&#xe5cf;" glyph-name="expand_more" d="M708 572.667l60-60-256-256-256 256 60 60 196-196z" />
<glyph unicode="&#xe5d1;" glyph-name="fullscreen_exit" d="M682 596.667h128v-84h-212v212h84v-128zM598 128.667v212h212v-84h-128v-128h-84zM342 596.667v128h84v-212h-212v84h128zM214 256.667v84h212v-212h-84v128h-128z" />
<glyph unicode="&#xe5d2;" glyph-name="menu" d="M128 682.667h768v-86h-768v86zM128 384.667v84h768v-84h-768zM128 170.667v86h768v-86h-768z" />
<glyph unicode="&#xe5d3;" glyph-name="more_horiz" d="M512 512.667c46 0 86-40 86-86s-40-86-86-86-86 40-86 86 40 86 86 86zM768 512.667c46 0 86-40 86-86s-40-86-86-86-86 40-86 86 40 86 86 86zM256 512.667c46 0 86-40 86-86s-40-86-86-86-86 40-86 86 40 86 86 86z" />
<glyph unicode="&#xe5d4;" glyph-name="more_vert" d="M512 256.667c46 0 86-40 86-86s-40-86-86-86-86 40-86 86 40 86 86 86zM512 512.667c46 0 86-40 86-86s-40-86-86-86-86 40-86 86 40 86 86 86zM512 596.667c-46 0-86 40-86 86s40 86 86 86 86-40 86-86-40-86-86-86z" />
<glyph unicode="&#xe5d5;" glyph-name="refresh" d="M754 668.667l100 100v-300h-300l138 138c-46 46-110 76-180 76-142 0-256-114-256-256s114-256 256-256c112 0 208 70 242 170h88c-38-148-170-256-330-256-188 0-340 154-340 342s152 342 340 342c94 0 180-38 242-100z" />
<glyph unicode="&#xe5dc;" glyph-name="first_page" d="M256 682.667h86v-512h-86v512zM786 230.667l-60-60-256 256 256 256 60-60-196-196z" />
<glyph unicode="&#xe5dd;" glyph-name="last_page" d="M682 682.667h86v-512h-86v512zM238 622.667l60 60 256-256-256-256-60 60 196 196z" />
<glyph unicode="&#xe611;" glyph-name="do_not_disturb_alt" d="M512 84.667c188 0 342 154 342 342 0 76-28 150-74 210l-478-478c60-46 134-74 210-74zM170 426.667c0-76 28-150 74-210l478 478c-60 46-134 74-210 74-188 0-342-154-342-342zM512 852.667c234 0 426-192 426-426s-192-426-426-426-426 192-426 426 192 426 426 426z" />
<glyph unicode="&#xe627;" glyph-name="sync" d="M512 170.667v128l170-170-170-172v128c-188 0-342 154-342 342 0 66 20 130 54 182l62-62c-20-36-30-76-30-120 0-142 114-256 256-256zM512 768.667c188 0 342-154 342-342 0-66-20-130-54-182l-62 62c20 36 30 76 30 120 0 142-114 256-256 256v-128l-170 170 170 172v-128z" />
<glyph unicode="&#xe80b;" glyph-name="public" d="M764 196.667c56 60 90 142 90 230 0 142-88 266-214 316v-18c0-46-40-84-86-84h-84v-86c0-24-20-42-44-42h-84v-86h256c24 0 42-18 42-42v-128h42c38 0 70-26 82-60zM470 88.667v82c-46 0-86 40-86 86v42l-204 204c-6-24-10-50-10-76 0-174 132-318 300-338zM512 852.667c236 0 426-190 426-426s-190-426-426-426-426 190-426 426 190 426 426 426z" />
<glyph unicode="&#xe80d;" glyph-name="share" d="M768 252.667c68 0 124-56 124-124s-56-126-124-126-124 58-124 126c0 10 0 20 2 28l-302 176c-24-22-54-34-88-34-70 0-128 58-128 128s58 128 128 128c34 0 64-12 88-34l300 174c-2 10-4 20-4 30 0 70 58 128 128 128s128-58 128-128-58-128-128-128c-34 0-64 14-88 36l-300-176c2-10 4-20 4-30s-2-20-4-30l304-176c22 20 52 32 84 32z" />
<glyph unicode="&#xe838;" glyph-name="star" d="M512 202.667l-264-160 70 300-232 202 306 26 120 282 120-282 306-26-232-202 70-300z" />
<glyph unicode="&#xe83a;" glyph-name="star_border" d="M512 280.667l160-96-42 182 142 124-188 16-72 172-72-172-188-16 142-124-42-182zM938 544.667l-232-202 70-300-264 160-264-160 70 300-232 202 306 26 120 282 120-282z" />
<glyph unicode="&#xe851;" glyph-name="account_box" d="M256 212.667v-42h512v42c0 86-170 132-256 132s-256-46-256-132zM640 554.667c0 70-58 128-128 128s-128-58-128-128 58-128 128-128 128 58 128 128zM128 724.667c0 46 38 86 86 86h596c46 0 86-40 86-86v-596c0-46-40-86-86-86h-596c-48 0-86 40-86 86v596z" />
<glyph unicode="&#xe853;" glyph-name="account_circle" d="M512 118.667c106 0 200 56 256 138-2 84-172 132-256 132-86 0-254-48-256-132 56-82 150-138 256-138zM512 724.667c-70 0-128-58-128-128s58-128 128-128 128 58 128 128-58 128-128 128zM512 852.667c236 0 426-190 426-426s-190-426-426-426-426 190-426 426 190 426 426 426z" />
<glyph unicode="&#xe868;" glyph-name="bug_report" d="M598 426.667v86h-172v-86h172zM598 256.667v84h-172v-84h172zM854 596.667v-84h-90c2-14 4-30 4-44v-42h86v-86h-86v-42c0-14-2-28-4-42h90v-86h-120c-44-76-128-128-222-128s-178 52-222 128h-120v86h90c-2 14-4 28-4 42v42h-86v86h86v42c0 14 2 30 4 44h-90v84h120c20 34 46 62 78 84l-70 70 60 60 94-92c20 4 40 6 60 6s40-2 60-6l94 92 60-60-70-70c32-22 58-50 78-84h120z" />
<glyph unicode="&#xe872;" glyph-name="delete" d="M810 768.667v-86h-596v86h148l44 42h212l44-42h148zM256 128.667v512h512v-512c0-46-40-86-86-86h-340c-46 0-86 40-86 86z" />
<glyph unicode="&#xe876;" glyph-name="done" d="M384 246.667l452 454 60-60-512-512-238 238 58 60z" />
<glyph unicode="&#xe877;" glyph-name="done_all" d="M18 366.667l60 60 238-238-60-60zM948 700.667l62-60-512-512-240 238 62 60 178-178zM768 640.667l-270-272-60 60 270 272z" />
<glyph unicode="&#xe879;" glyph-name="exit_to_app" d="M810 810.667c46 0 86-40 86-86v-596c0-46-40-86-86-86h-596c-48 0-86 40-86 86v170h86v-170h596v596h-596v-170h-86v170c0 46 38 86 86 86h596zM430 272.667l110 112h-412v84h412l-110 112 60 60 214-214-214-214z" />
<glyph unicode="&#xe883;" glyph-name="flip_to_front" d="M298 42.667v86h86v-86h-86zM470 42.667v86h84v-86h-84zM810 298.667v426h-426v-426h426zM810 810.667c46 0 86-40 86-86v-426c0-46-40-86-86-86h-426c-48 0-86 40-86 86v426c0 46 38 86 86 86h426zM640 42.667v86h86v-86h-86zM128 554.667v86h86v-86h-86zM214 42.667c-48 0-86 40-86 86h86v-86zM128 212.667v86h86v-86h-86zM128 384.667v84h86v-84h-86z" />
<glyph unicode="&#xe887;" glyph-name="help" d="M642 458.667c24 24 40 58 40 96 0 94-76 170-170 170s-170-76-170-170h84c0 46 40 86 86 86s86-40 86-86c0-24-10-44-26-60l-52-54c-30-32-50-74-50-120v-22h84c0 64 20 88 50 120zM554 128.667v84h-84v-84h84zM512 852.667c236 0 426-190 426-426s-190-426-426-426-426 190-426 426 190 426 426 426z" />
<glyph unicode="&#xe88a;" glyph-name="home" d="M426 84.667h-212v342h-128l426 384 426-384h-128v-342h-212v256h-172v-256z" />
<glyph unicode="&#xe88e;" glyph-name="info" d="M554 554.667v86h-84v-86h84zM554 212.667v256h-84v-256h84zM512 852.667c236 0 426-190 426-426s-190-426-426-426-426 190-426 426 190 426 426 426z" />
<glyph unicode="&#xe890;" glyph-name="input" d="M470 256.667v128h-428v84h428v128l170-170zM896 810.667c46 0 86-38 86-86v-598c0-46-40-84-86-84h-768c-46 0-86 38-86 84v172h86v-172h768v600h-768v-172h-86v170c0 46 40 86 86 86h768z" />
<glyph unicode="&#xe896;" glyph-name="list" d="M298 640.667h598v-86h-598v86zM298 212.667v86h598v-86h-598zM298 384.667v84h598v-84h-598zM128 554.667v86h86v-86h-86zM128 212.667v86h86v-86h-86zM128 384.667v84h86v-84h-86z" />
<glyph unicode="&#xe897;" glyph-name="lock" d="M644 596.667v86c0 72-60 132-132 132s-132-60-132-132v-86h264zM512 212.667c46 0 86 40 86 86s-40 86-86 86-86-40-86-86 40-86 86-86zM768 596.667c46 0 86-38 86-84v-428c0-46-40-84-86-84h-512c-46 0-86 38-86 84v428c0 46 40 84 86 84h42v86c0 118 96 214 214 214s214-96 214-214v-86h42z" />
<glyph unicode="&#xe89e;" glyph-name="open_in_new" d="M598 810.667h298v-298h-86v152l-418-418-60 60 418 418h-152v86zM810 128.667v298h86v-298c0-46-40-86-86-86h-596c-48 0-86 40-86 86v596c0 46 38 86 86 86h298v-86h-298v-596h596z" />
<glyph unicode="&#xe8b6;" glyph-name="search" d="M406 340.667c106 0 192 86 192 192s-86 192-192 192-192-86-192-192 86-192 192-192zM662 340.667l212-212-64-64-212 212v34l-12 12c-48-42-112-66-180-66-154 0-278 122-278 276s124 278 278 278 276-124 276-278c0-68-24-132-66-180l12-12h34z" />
<glyph unicode="&#xe8b8;" glyph-name="settings" d="M512 276.667c82 0 150 68 150 150s-68 150-150 150-150-68-150-150 68-150 150-150zM830 384.667l90-70c8-6 10-18 4-28l-86-148c-6-10-16-12-26-8l-106 42c-22-16-46-32-72-42l-16-112c-2-10-10-18-20-18h-172c-10 0-18 8-20 18l-16 112c-26 10-50 24-72 42l-106-42c-10-4-20-2-26 8l-86 148c-6 10-4 22 4 28l90 70c-2 14-2 28-2 42s0 28 2 42l-90 70c-8 6-10 18-4 28l86 148c6 10 16 12 26 8l106-42c22 16 46 32 72 42l16 112c2 10 10 18 20 18h172c10 0 18-8 20-18l16-112c26-10 50-24 72-42l106 42c10 4 20 2 26-8l86-148c6-10 4-22-4-28l-90-70c2-14 2-28 2-42s0-28-2-42z" />
<glyph unicode="&#xe8d5;" glyph-name="swap_vert" d="M384 810.667l170-170h-128v-300h-84v300h-128zM682 212.667h128l-170-170-170 170h128v300h84v-300z" />
<glyph unicode="&#xe8dc;" glyph-name="thumb_up" d="M982 512.667l-2-4h2v-82c0-12-2-22-6-32l-130-300c-12-30-42-52-78-52h-384c-46 0-86 40-86 86v426c0 24 10 44 26 60l280 282 46-46c12-12 18-26 18-44v-14l-42-196h270c46 0 86-38 86-84zM42 42.667v512h172v-512h-172z" />
<glyph unicode="&#xe8e7;" glyph-name="turned_in_not" d="M726 170.667v554h-428v-554l214 94zM726 810.667c46 0 84-40 84-86v-682l-298 128-298-128v682c0 46 38 86 84 86h428z" />
<glyph unicode="&#xe8f0;" glyph-name="view_module" d="M682 724.667h214v-256h-214v256zM426 468.667v256h214v-256h-214zM682 170.667v256h214v-256h-214zM426 170.667v256h214v-256h-214zM170 170.667v256h214v-256h-214zM170 468.667v256h214v-256h-214z" />
<glyph unicode="&#xe8f4;" glyph-name="visibility" d="M512 554.667c70 0 128-58 128-128s-58-128-128-128-128 58-128 128 58 128 128 128zM512 212.667c118 0 214 96 214 214s-96 214-214 214-214-96-214-214 96-214 214-214zM512 746.667c214 0 396-132 470-320-74-188-256-320-470-320s-396 132-470 320c74 188 256 320 470 320z" />
<glyph unicode="&#xe8fe;" glyph-name="reorder" d="M128 724.667h768v-84h-768v84zM128 468.667v86h768v-86h-768zM128 128.667v84h768v-84h-768zM128 298.667v86h768v-86h-768z" />
<glyph unicode="&#xe909;" glyph-name="indeterminate_check_box" d="M726 384.667v84h-428v-84h428zM810 810.667c46 0 86-40 86-86v-596c0-46-40-86-86-86h-596c-46 0-86 40-86 86v596c0 46 40 86 86 86h596z" />
<glyph unicode="&#xe916;" glyph-name="date_range" d="M810 84.667v470h-596v-470h596zM810 768.667c46 0 86-40 86-86v-598c0-46-40-84-86-84h-596c-48 0-86 38-86 84v598c0 46 38 86 86 86h42v84h86v-84h340v84h86v-84h42zM726 468.667v-84h-86v84h86zM554 468.667v-84h-84v84h84zM384 468.667v-84h-86v84h86z" />
</font></defs></svg>